simulation/qsim/Adventure_Game.msim.vcd
$comment
	File created using the following command:
		vcd file Adventure_Game.msim.vcd -direction
$end
$date
	Mon Dec 10 10:52:54 2018
$end
$version
	ModelSim Version 10.5b
$end
$timescale
	1ps
$end

$scope module Adventure_Game_vlg_vec_tst $end
$var reg 1 ! E $end
$var reg 1 " N $end
$var reg 1 # S $end
$var reg 1 $ W $end
$var reg 1 % clk $end
$var wire 1 & DIE $end
$var wire 1 ' WIN $end
$var wire 1 ( current [2] $end
$var wire 1 ) current [1] $end
$var wire 1 * current [0] $end
$var wire 1 + next [2] $end
$var wire 1 , next [1] $end
$var wire 1 - next [0] $end

$scope module i1 $end
$var wire 1 . gnd $end
$var wire 1 / vcc $end
$var wire 1 0 unknown $end
$var tri1 1 1 devclrn $end
$var tri1 1 2 devpor $end
$var tri1 1 3 devoe $end
$var wire 1 4 ~QUARTUS_CREATED_GND~I_combout $end
$var wire 1 5 clk~input_o $end
$var wire 1 6 clk~inputCLKENA0_outclk $end
$var wire 1 7 W~input_o $end
$var wire 1 8 N~input_o $end
$var wire 1 9 E~input_o $end
$var wire 1 : S~input_o $end
$var wire 1 ; current[1]~reg0_q $end
$var wire 1 < current[0]~reg0DUPLICATE_q $end
$var wire 1 = next~4_combout $end
$var wire 1 > next~5_combout $end
$var wire 1 ? next~0_combout $end
$var wire 1 @ next~6_combout $end
$var wire 1 A next~3_combout $end
$var wire 1 B next[1]~reg0_q $end
$var wire 1 C current[1]~reg0DUPLICATE_q $end
$var wire 1 D next~7_combout $end
$var wire 1 E next~8_combout $end
$var wire 1 F next[2]~reg0_q $end
$var wire 1 G current[2]~reg0_q $end
$var wire 1 H next~1_combout $end
$var wire 1 I next~2_combout $end
$var wire 1 J next[0]~reg0_q $end
$var wire 1 K current[0]~reg0_q $end
$upscope $end
$upscope $end
$enddefinitions $end
#0
$dumpvars
1!
0"
0#
0$
0%
0&
0'
0*
0)
0(
0-
0,
0+
0.
1/
x0
11
12
13
04
05
06
07
08
19
0:
0;
0<
0=
0>
0?
0@
1A
0B
0C
1D
0E
0F
0G
0H
0I
0J
0K
$end
#2500
1%
15
16
#5000
0!
1#
0%
09
1:
05
06
1H
0D
1I
#7500
1%
15
16
1J
1-
#10000
0%
05
06
#12500
1%
15
16
1<
1K
1*
0H
1>
1@
0I
#15000
1$
0#
0%
17
0:
05
06
0>
0@
#17500
1%
15
16
0J
0-
#20000
1!
0$
0%
19
07
05
06
1D
0A
#22500
1%
15
16
0<
0K
0*
1A
#25000
0%
05
06
#27500
1%
15
16
