simulation/qsim/Adventure_Game.msim.vcd
$comment
	File created using the following command:
		vcd file Adventure_Game.msim.vcd -direction
$end
$date
	Tue Dec 11 23:57:33 2018
$end
$version
	ModelSim Version 10.5b
$end
$timescale
	1ps
$end

$scope module Adventure_Game_vlg_vec_tst $end
$var reg 1 ! E $end
$var reg 1 " N $end
$var reg 1 # S $end
$var reg 1 $ W $end
$var reg 1 % clk $end
$var wire 1 & DIE $end
$var wire 1 ' WIN $end
$var wire 1 ( current [2] $end
$var wire 1 ) current [1] $end
$var wire 1 * current [0] $end
$var wire 1 + next [2] $end
$var wire 1 , next [1] $end
$var wire 1 - next [0] $end

$scope module i1 $end
$var wire 1 . gnd $end
$var wire 1 / vcc $end
$var wire 1 0 unknown $end
$var tri1 1 1 devclrn $end
$var tri1 1 2 devpor $end
$var tri1 1 3 devoe $end
$var wire 1 4 ~QUARTUS_CREATED_GND~I_combout $end
$var wire 1 5 clk~input_o $end
$var wire 1 6 clk~inputCLKENA0_outclk $end
$var wire 1 7 W~input_o $end
$var wire 1 8 E~input_o $end
$var wire 1 9 current[1]~reg0_q $end
$var wire 1 : N~input_o $end
$var wire 1 ; next~1_combout $end
$var wire 1 < S~input_o $end
$var wire 1 = next~2_combout $end
$var wire 1 > next~3_combout $end
$var wire 1 ? next[2]~reg0_q $end
$var wire 1 @ current[2]~reg0_q $end
$var wire 1 A next~0_combout $end
$var wire 1 B next~4_combout $end
$var wire 1 C next[0]~8_combout $end
$var wire 1 D next[1]~reg0_q $end
$var wire 1 E current[1]~reg0feeder_combout $end
$var wire 1 F current[1]~reg0DUPLICATE_q $end
$var wire 1 G sfsm|state~0_combout $end
$var wire 1 H sfsm|state~q $end
$var wire 1 I next~12_combout $end
$var wire 1 J next[0]~reg0_q $end
$var wire 1 K current[0]~reg0feeder_combout $end
$var wire 1 L current[0]~reg0_q $end
$upscope $end
$upscope $end
$enddefinitions $end
#0
$dumpvars
1!
0"
0#
0$
0%
0&
0'
0*
0)
0(
0-
0,
0+
0.
1/
x0
11
12
13
04
05
06
07
18
09
0:
0;
0<
0=
0>
0?
0@
0A
0B
1C
0D
0E
0F
0G
0H
1I
0J
0K
0L
$end
#2500
1%
15
16
#5000
0!
1#
0%
08
1<
05
06
0C
1=
#7500
1%
15
16
1J
1-
1K
#10000
0%
05
06
1L
1*
1A
0I
1B
#12500
1%
15
16
0J
1D
1,
0-
1E
0K
#15000
1$
0#
0%
17
0<
05
06
0A
0B
1F
19
0L
0*
1)
1A
1I
1B
#17500
1%
15
16
1J
1-
1K
#20000
1!
0$
0%
18
07
05
06
0A
0=
1;
0I
1>
0B
1L
1*
1G
#22500
1%
15
16
1H
0J
0D
1?
1+
0,
0-
0E
0K
#25000
0%
05
06
0F
09
1@
0L
0*
1(
0)
1I
#27500
1%
15
16
1J
1-
1K
#30000
0%
05
06
1L
1*
1C
0;
#32500
1%
15
16
#35000
0!
0%
08
05
06
#37500
1%
15
16
#40000
0%
05
06
#42500
1%
15
16
